[
  {
    "request": {
      "body": "",
      "headers": {
        "Content-Type": "application/json; charset=utf-8"
      },
      "method": "get",
      "options": {
        "recv_timeout": 15000
      },
      "request_body": "",
      "url": "https://rickandmortyapi.com/api/character/?species=alien"
    },
    "response": {
      "binary": false,
      "body": "{\"info\":{\"count\":111,\"pages\":6,\"next\":\"https://rickandmortyapi.com/api/character/?page=2&species=alien\",\"prev\":\"\"},\"results\":[{\"id\":6,\"name\":\"Abadango Cluster Princess\",\"status\":\"Alive\",\"species\":\"Alien\",\"type\":\"\",\"gender\":\"Female\",\"origin\":{\"name\":\"Abadango\",\"url\":\"https://rickandmortyapi.com/api/location/2\"},\"location\":{\"name\":\"Abadango\",\"url\":\"https://rickandmortyapi.com/api/location/2\"},\"image\":\"https://rickandmortyapi.com/api/character/avatar/6.jpeg\",\"episode\":[\"https://rickandmortyapi.com/api/episode/27\"],\"url\":\"https://rickandmortyapi.com/api/character/6\",\"created\":\"2017-11-04T19:50:28.250Z\"},{\"id\":13,\"name\":\"Alien Googah\",\"status\":\"unknown\",\"species\":\"Alien\",\"type\":\"\",\"gender\":\"unknown\",\"origin\":{\"name\":\"unknown\",\"url\":\"\"},\"location\":{\"name\":\"Earth (Replacement Dimension)\",\"url\":\"https://rickandmortyapi.com/api/location/20\"},\"image\":\"https://rickandmortyapi.com/api/character/avatar/13.jpeg\",\"episode\":[\"https://rickandmortyapi.com/api/episode/31\"],\"url\":\"https://rickandmortyapi.com/api/character/13\",\"created\":\"2017-11-04T20:33:30.779Z\"},{\"id\":14,\"name\":\"Alien Morty\",\"status\":\"unknown\",\"species\":\"Alien\",\"type\":\"\",\"gender\":\"Male\",\"origin\":{\"name\":\"unknown\",\"url\":\"\"},\"location\":{\"name\":\"Citadel of Ricks\",\"url\":\"https://rickandmortyapi.com/api/location/3\"},\"image\":\"https://rickandmortyapi.com/api/character/avatar/14.jpeg\",\"episode\":[\"https://rickandmortyapi.com/api/episode/10\"],\"url\":\"https://rickandmortyapi.com/api/character/14\",\"created\":\"2017-11-04T20:51:31.373Z\"},{\"id\":15,\"name\":\"Alien Rick\",\"status\":\"unknown\",\"species\":\"Alien\",\"type\":\"\",\"gender\":\"Male\",\"origin\":{\"name\":\"unknown\",\"url\":\"\"},\"location\":{\"name\":\"Citadel of Ricks\",\"url\":\"https://rickandmortyapi.com/api/location/3\"},\"image\":\"https://rickandmortyapi.com/api/character/avatar/15.jpeg\",\"episode\":[\"https://rickandmortyapi.com/api/episode/10\"],\"url\":\"https://rickandmortyapi.com/api/character/15\",\"created\":\"2017-11-04T20:56:13.215Z\"},{\"id\":16,\"name\":\"Amish Cyborg\",\"status\":\"Dead\",\"species\":\"Alien\",\"type\":\"Parasite, Cyborg\",\"gender\":\"Male\",\"origin\":{\"name\":\"unknown\",\"url\":\"\"},\"location\":{\"name\":\"Earth (Replacement Dimension)\",\"url\":\"https://rickandmortyapi.com/api/location/20\"},\"image\":\"https://rickandmortyapi.com/api/character/avatar/16.jpeg\",\"episode\":[\"https://rickandmortyapi.com/api/episode/15\"],\"url\":\"https://rickandmortyapi.com/api/character/16\",\"created\":\"2017-11-04T21:12:45.235Z\"},{\"id\":23,\"name\":\"Arcade Alien\",\"status\":\"unknown\",\"species\":\"Alien\",\"type\":\"\",\"gender\":\"Male\",\"origin\":{\"name\":\"unknown\",\"url\":\"\"},\"location\":{\"name\":\"Immortality Field Resort\",\"url\":\"https://rickandmortyapi.com/api/location/7\"},\"image\":\"https://rickandmortyapi.com/api/character/avatar/23.jpeg\",\"episode\":[\"https://rickandmortyapi.com/api/episode/13\",\"https://rickandmortyapi.com/api/episode/19\",\"https://rickandmortyapi.com/api/episode/21\",\"https://rickandmortyapi.com/api/episode/25\",\"https://rickandmortyapi.com/api/episode/26\"],\"url\":\"https://rickandmortyapi.com/api/character/23\",\"created\":\"2017-11-05T08:43:05.095Z\"},{\"id\":24,\"name\":\"Armagheadon\",\"status\":\"Alive\",\"species\":\"Alien\",\"type\":\"Cromulon\",\"gender\":\"Male\",\"origin\":{\"name\":\"Signus 5 Expanse\",\"url\":\"https://rickandmortyapi.com/api/location/22\"},\"location\":{\"name\":\"Signus 5 Expanse\",\"url\":\"https://rickandmortyapi.com/api/location/22\"},\"image\":\"https://rickandmortyapi.com/api/character/avatar/24.jpeg\",\"episode\":[\"https://rickandmortyapi.com/api/episode/16\"],\"url\":\"https://rickandmortyapi.com/api/character/24\",\"created\":\"2017-11-05T08:48:30.776Z\"},{\"id\":26,\"name\":\"Arthricia\",\"status\":\"Alive\",\"species\":\"Alien\",\"type\":\"Cat-Person\",\"gender\":\"Female\",\"origin\":{\"name\":\"Purge Planet\",\"url\":\"https://rickandmortyapi.com/api/location/9\"},\"location\":{\"name\":\"Purge Planet\",\"url\":\"https://rickandmortyapi.com/api/location/9\"},\"image\":\"https://rickandmortyapi.com/api/character/avatar/26.jpeg\",\"episode\":[\"https://rickandmortyapi.com/api/episode/20\"],\"url\":\"https://rickandmortyapi.com/api/character/26\",\"created\":\"2017-11-05T08:56:46.165Z\"},{\"id\":31,\"name\":\"Baby Wizard\",\"status\":\"Dead\",\"species\":\"Alien\",\"type\":\"Parasite\",\"gender\":\"Male\",\"origin\":{\"name\":\"unknown\",\"url\":\"\"},\"location\":{\"name\":\"Earth (Replacement Dimension)\",\"url\":\"https://rickandmortyapi.com/api/location/20\"},\"image\":\"https://rickandmortyapi.com/api/character/avatar/31.jpeg\",\"episode\":[\"https://rickandmortyapi.com/api/episode/15\"],\"url\":\"https://rickandmortyapi.com/api/character/31\",\"created\":\"2017-11-05T09:15:11.286Z\"},{\"id\":32,\"name\":\"Bearded Lady\",\"status\":\"Dead\",\"species\":\"Alien\",\"type\":\"Parasite\",\"gender\":\"Female\",\"origin\":{\"name\":\"unknown\",\"url\":\"\"},\"location\":{\"name\":\"Earth (Replacement Dimension)\",\"url\":\"https://rickandmortyapi.com/api/location/20\"},\"image\":\"https://rickandmortyapi.com/api/character/avatar/32.jpeg\",\"episode\":[\"https://rickandmortyapi.com/api/episode/15\"],\"url\":\"https://rickandmortyapi.com/api/character/32\",\"created\":\"2017-11-05T09:18:04.184Z\"},{\"id\":33,\"name\":\"Beebo\",\"status\":\"Dead\",\"species\":\"Alien\",\"type\":\"\",\"gender\":\"Male\",\"origin\":{\"name\":\"Venzenulon 7\",\"url\":\"https://rickandmortyapi.com/api/location/10\"},\"location\":{\"name\":\"Venzenulon 7\",\"url\":\"https://rickandmortyapi.com/api/location/10\"},\"image\":\"https://rickandmortyapi.com/api/character/avatar/33.jpeg\",\"episode\":[\"https://rickandmortyapi.com/api/episode/29\"],\"url\":\"https://rickandmortyapi.com/api/character/33\",\"created\":\"2017-11-05T09:21:55.595Z\"},{\"id\":35,\"name\":\"Bepisian\",\"status\":\"Alive\",\"species\":\"Alien\",\"type\":\"Bepisian\",\"gender\":\"unknown\",\"origin\":{\"name\":\"Bepis 9\",\"url\":\"https://rickandmortyapi.com/api/location/11\"},\"location\":{\"name\":\"Bepis 9\",\"url\":\"https://rickandmortyapi.com/api/location/11\"},\"image\":\"https://rickandmortyapi.com/api/character/avatar/35.jpeg\",\"episode\":[\"https://rickandmortyapi.com/api/episode/1\"],\"url\":\"https://rickandmortyapi.com/api/character/35\",\"created\":\"2017-11-05T09:27:38.491Z\"},{\"id\":36,\"name\":\"Beta-Seven\",\"status\":\"Alive\",\"species\":\"Alien\",\"type\":\"Hivemind\",\"gender\":\"unknown\",\"origin\":{\"name\":\"unknown\",\"url\":\"\"},\"location\":{\"name\":\"unknown\",\"url\":\"\"},\"image\":\"https://rickandmortyapi.com/api/character/avatar/36.jpeg\",\"episode\":[\"https://rickandmortyapi.com/api/episode/14\"],\"url\":\"https://rickandmortyapi.com/api/character/36\",\"created\":\"2017-11-05T09:31:08.952Z\"},{\"id\":47,\"name\":\"Birdperson\",\"status\":\"Dead\",\"species\":\"Alien\",\"type\":\"Bird-Person\",\"gender\":\"Male\",\"origin\":{\"name\":\"Bird World\",\"url\":\"https://rickandmortyapi.com/api/location/15\"},\"location\":{\"name\":\"Planet Squanch\",\"url\":\"https://rickandmortyapi.com/api/location/35\"},\"image\":\"https://rickandmortyapi.com/api/character/avatar/47.jpeg\",\"episode\":[\"https://rickandmortyapi.com/api/episode/11\",\"https://rickandmortyapi.com/api/episode/16\",\"https://rickandmortyapi.com/api/episode/21\",\"https://rickandmortyapi.com/api/episode/22\",\"https://rickandmortyapi.com/api/episode/26\"],\"url\":\"https://rickandmortyapi.com/api/character/47\",\"created\":\"2017-11-05T11:13:36.018Z\"},{\"id\":49,\"name\":\"Blamph\",\"status\":\"Alive\",\"species\":\"Alien\",\"type\":\"\",\"gender\":\"unknown\",\"origin\":{\"name\":\"unknown\",\"url\":\"\"},\"location\":{\"name\":\"Interdimensional Cable\",\"url\":\"https://rickandmortyapi.com/api/location/6\"},\"image\":\"https://rickandmortyapi.com/api/character/avatar/49.jpeg\",\"episode\":[\"https://rickandmortyapi.com/api/episode/19\"],\"url\":\"https://rickandmortyapi.com/api/character/49\",\"created\":\"2017-11-05T11:18:26.702Z\"},{\"id\":50,\"name\":\"Blim Blam\",\"status\":\"Alive\",\"species\":\"Alien\",\"type\":\"Korblock\",\"gender\":\"Male\",\"origin\":{\"name\":\"unknown\",\"url\":\"\"},\"location\":{\"name\":\"Earth (Replacement Dimension)\",\"url\":\"https://rickandmortyapi.com/api/location/20\"},\"image\":\"https://rickandmortyapi.com/api/character/avatar/50.jpeg\",\"episode\":[\"https://rickandmortyapi.com/api/episode/14\"],\"url\":\"https://rickandmortyapi.com/api/character/50\",\"created\":\"2017-11-05T11:21:43.756Z\"},{\"id\":51,\"name\":\"Blue Diplomat\",\"status\":\"Alive\",\"species\":\"Alien\",\"type\":\"\",\"gender\":\"Male\",\"origin\":{\"name\":\"unknown\",\"url\":\"\"},\"location\":{\"name\":\"Interdimensional Cable\",\"url\":\"https://rickandmortyapi.com/api/location/6\"},\"image\":\"https://rickandmortyapi.com/api/character/avatar/51.jpeg\",\"episode\":[\"https://rickandmortyapi.com/api/episode/19\"],\"url\":\"https://rickandmortyapi.com/api/character/51\",\"created\":\"2017-11-05T11:24:49.688Z\"},{\"id\":55,\"name\":\"Boobloosian\",\"status\":\"Dead\",\"species\":\"Alien\",\"type\":\"Boobloosian\",\"gender\":\"unknown\",\"origin\":{\"name\":\"unknown\",\"url\":\"\"},\"location\":{\"name\":\"Nuptia 4\",\"url\":\"https://rickandmortyapi.com/api/location/13\"},\"image\":\"https://rickandmortyapi.com/api/character/avatar/55.jpeg\",\"episode\":[\"https://rickandmortyapi.com/api/episode/18\"],\"url\":\"https://rickandmortyapi.com/api/character/55\",\"created\":\"2017-11-05T11:32:53.847Z\"},{\"id\":57,\"name\":\"Borpocian\",\"status\":\"Alive\",\"species\":\"Alien\",\"type\":\"Elephant-Person\",\"gender\":\"Male\",\"origin\":{\"name\":\"unknown\",\"url\":\"\"},\"location\":{\"name\":\"unknown\",\"url\":\"\"},\"image\":\"https://rickandmortyapi.com/api/character/avatar/57.jpeg\",\"episode\":[\"https://rickandmortyapi.com/api/episode/22\"],\"url\":\"https://rickandmortyapi.com/api/character/57\",\"created\":\"2017-11-05T11:38:29.459Z\"},{\"id\":62,\"name\":\"Canklanker Thom\",\"status\":\"Dead\",\"species\":\"Alien\",\"type\":\"Gromflomite\",\"gender\":\"Male\",\"origin\":{\"name\":\"Gromflom Prime\",\"url\":\"https://rickandmortyapi.com/api/location/19\"},\"location\":{\"name\":\"unknown\",\"url\":\"\"},\"image\":\"https://rickandmortyapi.com/api/character/avatar/62.jpeg\",\"episode\":[\"https://rickandmortyapi.com/api/episode/1\"],\"url\":\"https://rickandmortyapi.com/api/character/62\",\"created\":\"2017-11-05T12:06:23.217Z\"}]}",
      "headers": {
        "Server": "nginx/1.10.3 (Ubuntu)",
        "Date": "Sun, 25 Mar 2018 22:33:24 GMT",
        "Content-Type": "application/json; charset=utf-8",
        "Content-Length": "9523",
        "Connection": "keep-alive",
        "X-Powered-By": "Express",
        "ETag": "W/\"2533-RIC/dNiUoZRcU8cTxxUJcsLte/8\"",
        "Access-Control-Allow-Origin": "*",
        "Expires": "Sun, 25 Mar 2018 22:38:24 GMT",
        "Cache-Control": "max-age=300"
      },
      "status_code": 200,
      "type": "ok"
    }
  }
]