[
  {
    "request": {
      "body": "",
      "headers": {
        "Content-Type": "application/json; charset=utf-8"
      },
      "method": "get",
      "options": {
        "recv_timeout": 15000
      },
      "request_body": "",
      "url": "https://rickandmortyapi.com/api/character/?gender=female"
    },
    "response": {
      "binary": false,
      "body": "{\"info\":{\"count\":64,\"pages\":4,\"next\":\"https://rickandmortyapi.com/api/character/?page=2&gender=female\",\"prev\":\"\"},\"results\":[{\"id\":3,\"name\":\"Summer Smith\",\"status\":\"Alive\",\"species\":\"Human\",\"type\":\"\",\"gender\":\"Female\",\"origin\":{\"name\":\"Earth (Replacement Dimension)\",\"url\":\"https://rickandmortyapi.com/api/location/20\"},\"location\":{\"name\":\"Earth (Replacement Dimension)\",\"url\":\"https://rickandmortyapi.com/api/location/20\"},\"image\":\"https://rickandmortyapi.com/api/character/avatar/3.jpeg\",\"episode\":[\"https://rickandmortyapi.com/api/episode/6\",\"https://rickandmortyapi.com/api/episode/7\",\"https://rickandmortyapi.com/api/episode/8\",\"https://rickandmortyapi.com/api/episode/9\",\"https://rickandmortyapi.com/api/episode/10\",\"https://rickandmortyapi.com/api/episode/11\",\"https://rickandmortyapi.com/api/episode/12\",\"https://rickandmortyapi.com/api/episode/14\",\"https://rickandmortyapi.com/api/episode/15\",\"https://rickandmortyapi.com/api/episode/16\",\"https://rickandmortyapi.com/api/episode/17\",\"https://rickandmortyapi.com/api/episode/18\",\"https://rickandmortyapi.com/api/episode/19\",\"https://rickandmortyapi.com/api/episode/20\",\"https://rickandmortyapi.com/api/episode/21\",\"https://rickandmortyapi.com/api/episode/22\",\"https://rickandmortyapi.com/api/episode/23\",\"https://rickandmortyapi.com/api/episode/24\",\"https://rickandmortyapi.com/api/episode/25\",\"https://rickandmortyapi.com/api/episode/26\",\"https://rickandmortyapi.com/api/episode/27\",\"https://rickandmortyapi.com/api/episode/29\",\"https://rickandmortyapi.com/api/episode/30\",\"https://rickandmortyapi.com/api/episode/31\"],\"url\":\"https://rickandmortyapi.com/api/character/3\",\"created\":\"2017-11-04T19:09:56.428Z\"},{\"id\":4,\"name\":\"Beth Smith\",\"status\":\"Alive\",\"species\":\"Human\",\"type\":\"\",\"gender\":\"Female\",\"origin\":{\"name\":\"Earth (Replacement Dimension)\",\"url\":\"https://rickandmortyapi.com/api/location/20\"},\"location\":{\"name\":\"Earth (Replacement Dimension)\",\"url\":\"https://rickandmortyapi.com/api/location/20\"},\"image\":\"https://rickandmortyapi.com/api/character/avatar/4.jpeg\",\"episode\":[\"https://rickandmortyapi.com/api/episode/6\",\"https://rickandmortyapi.com/api/episode/7\",\"https://rickandmortyapi.com/api/episode/8\",\"https://rickandmortyapi.com/api/episode/9\",\"https://rickandmortyapi.com/api/episode/10\",\"https://rickandmortyapi.com/api/episode/11\",\"https://rickandmortyapi.com/api/episode/12\",\"https://rickandmortyapi.com/api/episode/14\",\"https://rickandmortyapi.com/api/episode/15\",\"https://rickandmortyapi.com/api/episode/16\",\"https://rickandmortyapi.com/api/episode/18\",\"https://rickandmortyapi.com/api/episode/19\",\"https://rickandmortyapi.com/api/episode/20\",\"https://rickandmortyapi.com/api/episode/21\",\"https://rickandmortyapi.com/api/episode/22\",\"https://rickandmortyapi.com/api/episode/23\",\"https://rickandmortyapi.com/api/episode/24\",\"https://rickandmortyapi.com/api/episode/25\",\"https://rickandmortyapi.com/api/episode/26\",\"https://rickandmortyapi.com/api/episode/27\",\"https://rickandmortyapi.com/api/episode/28\",\"https://rickandmortyapi.com/api/episode/29\",\"https://rickandmortyapi.com/api/episode/30\",\"https://rickandmortyapi.com/api/episode/31\"],\"url\":\"https://rickandmortyapi.com/api/character/4\",\"created\":\"2017-11-04T19:22:43.665Z\"},{\"id\":6,\"name\":\"Abadango Cluster Princess\",\"status\":\"Alive\",\"species\":\"Alien\",\"type\":\"\",\"gender\":\"Female\",\"origin\":{\"name\":\"Abadango\",\"url\":\"https://rickandmortyapi.com/api/location/2\"},\"location\":{\"name\":\"Abadango\",\"url\":\"https://rickandmortyapi.com/api/location/2\"},\"image\":\"https://rickandmortyapi.com/api/character/avatar/6.jpeg\",\"episode\":[\"https://rickandmortyapi.com/api/episode/27\"],\"url\":\"https://rickandmortyapi.com/api/character/6\",\"created\":\"2017-11-04T19:50:28.250Z\"},{\"id\":17,\"name\":\"Annie\",\"status\":\"Alive\",\"species\":\"Human\",\"type\":\"\",\"gender\":\"Female\",\"origin\":{\"name\":\"Earth (C-137)\",\"url\":\"https://rickandmortyapi.com/api/location/1\"},\"location\":{\"name\":\"Anatomy Park\",\"url\":\"https://rickandmortyapi.com/api/location/5\"},\"image\":\"https://rickandmortyapi.com/api/character/avatar/17.jpeg\",\"episode\":[\"https://rickandmortyapi.com/api/episode/3\"],\"url\":\"https://rickandmortyapi.com/api/character/17\",\"created\":\"2017-11-04T22:21:24.481Z\"},{\"id\":26,\"name\":\"Arthricia\",\"status\":\"Alive\",\"species\":\"Alien\",\"type\":\"Cat-Person\",\"gender\":\"Female\",\"origin\":{\"name\":\"Purge Planet\",\"url\":\"https://rickandmortyapi.com/api/location/9\"},\"location\":{\"name\":\"Purge Planet\",\"url\":\"https://rickandmortyapi.com/api/location/9\"},\"image\":\"https://rickandmortyapi.com/api/character/avatar/26.jpeg\",\"episode\":[\"https://rickandmortyapi.com/api/episode/20\"],\"url\":\"https://rickandmortyapi.com/api/character/26\",\"created\":\"2017-11-05T08:56:46.165Z\"},{\"id\":32,\"name\":\"Bearded Lady\",\"status\":\"Dead\",\"species\":\"Alien\",\"type\":\"Parasite\",\"gender\":\"Female\",\"origin\":{\"name\":\"unknown\",\"url\":\"\"},\"location\":{\"name\":\"Earth (Replacement Dimension)\",\"url\":\"https://rickandmortyapi.com/api/location/20\"},\"image\":\"https://rickandmortyapi.com/api/character/avatar/32.jpeg\",\"episode\":[\"https://rickandmortyapi.com/api/episode/15\"],\"url\":\"https://rickandmortyapi.com/api/character/32\",\"created\":\"2017-11-05T09:18:04.184Z\"},{\"id\":37,\"name\":\"Beth Sanchez\",\"status\":\"Alive\",\"species\":\"Human\",\"type\":\"\",\"gender\":\"Female\",\"origin\":{\"name\":\"Earth (C-500A)\",\"url\":\"https://rickandmortyapi.com/api/location/23\"},\"location\":{\"name\":\"Earth (C-500A)\",\"url\":\"https://rickandmortyapi.com/api/location/23\"},\"image\":\"https://rickandmortyapi.com/api/character/avatar/37.jpeg\",\"episode\":[\"https://rickandmortyapi.com/api/episode/8\"],\"url\":\"https://rickandmortyapi.com/api/character/37\",\"created\":\"2017-11-05T09:38:22.960Z\"},{\"id\":38,\"name\":\"Beth Smith\",\"status\":\"Alive\",\"species\":\"Human\",\"type\":\"\",\"gender\":\"Female\",\"origin\":{\"name\":\"Earth (C-137)\",\"url\":\"https://rickandmortyapi.com/api/location/1\"},\"location\":{\"name\":\"Earth (C-137)\",\"url\":\"https://rickandmortyapi.com/api/location/1\"},\"image\":\"https://rickandmortyapi.com/api/character/avatar/38.jpeg\",\"episode\":[\"https://rickandmortyapi.com/api/episode/1\",\"https://rickandmortyapi.com/api/episode/2\",\"https://rickandmortyapi.com/api/episode/3\",\"https://rickandmortyapi.com/api/episode/4\",\"https://rickandmortyapi.com/api/episode/5\",\"https://rickandmortyapi.com/api/episode/6\",\"https://rickandmortyapi.com/api/episode/22\"],\"url\":\"https://rickandmortyapi.com/api/character/38\",\"created\":\"2017-11-05T09:48:44.230Z\"},{\"id\":39,\"name\":\"Beth Smith\",\"status\":\"Alive\",\"species\":\"Human\",\"type\":\"\",\"gender\":\"Female\",\"origin\":{\"name\":\"Earth (Evil Rick's Target Dimension)\",\"url\":\"https://rickandmortyapi.com/api/location/34\"},\"location\":{\"name\":\"Earth (Evil Rick's Target Dimension)\",\"url\":\"https://rickandmortyapi.com/api/location/34\"},\"image\":\"https://rickandmortyapi.com/api/character/avatar/39.jpeg\",\"episode\":[\"https://rickandmortyapi.com/api/episode/10\"],\"url\":\"https://rickandmortyapi.com/api/character/39\",\"created\":\"2017-11-05T09:52:31.777Z\"},{\"id\":40,\"name\":\"Beth's Mytholog\",\"status\":\"Dead\",\"species\":\"Mytholog\",\"type\":\"\",\"gender\":\"Female\",\"origin\":{\"name\":\"Nuptia 4\",\"url\":\"https://rickandmortyapi.com/api/location/13\"},\"location\":{\"name\":\"Nuptia 4\",\"url\":\"https://rickandmortyapi.com/api/location/13\"},\"image\":\"https://rickandmortyapi.com/api/character/avatar/40.jpeg\",\"episode\":[\"https://rickandmortyapi.com/api/episode/18\"],\"url\":\"https://rickandmortyapi.com/api/character/40\",\"created\":\"2017-11-05T10:02:26.701Z\"},{\"id\":41,\"name\":\"Big Boobed Waitress\",\"status\":\"Alive\",\"species\":\"Humanoid\",\"type\":\"\",\"gender\":\"Female\",\"origin\":{\"name\":\"Fantasy World\",\"url\":\"https://rickandmortyapi.com/api/location/48\"},\"location\":{\"name\":\"Fantasy World\",\"url\":\"https://rickandmortyapi.com/api/location/48\"},\"image\":\"https://rickandmortyapi.com/api/character/avatar/41.jpeg\",\"episode\":[\"https://rickandmortyapi.com/api/episode/5\"],\"url\":\"https://rickandmortyapi.com/api/character/41\",\"created\":\"2017-11-05T10:13:45.960Z\"},{\"id\":60,\"name\":\"Calypso\",\"status\":\"Dead\",\"species\":\"Human\",\"type\":\"Superhuman\",\"gender\":\"Female\",\"origin\":{\"name\":\"unknown\",\"url\":\"\"},\"location\":{\"name\":\"unknown\",\"url\":\"\"},\"image\":\"https://rickandmortyapi.com/api/character/avatar/60.jpeg\",\"episode\":[\"https://rickandmortyapi.com/api/episode/25\"],\"url\":\"https://rickandmortyapi.com/api/character/60\",\"created\":\"2017-11-05T11:52:45.852Z\"},{\"id\":80,\"name\":\"Creepy Little Girl\",\"status\":\"Alive\",\"species\":\"Human\",\"type\":\"\",\"gender\":\"Female\",\"origin\":{\"name\":\"unknown\",\"url\":\"\"},\"location\":{\"name\":\"Mr. Goldenfold's dream\",\"url\":\"https://rickandmortyapi.com/api/location/18\"},\"image\":\"https://rickandmortyapi.com/api/character/avatar/80.jpeg\",\"episode\":[\"https://rickandmortyapi.com/api/episode/2\"],\"url\":\"https://rickandmortyapi.com/api/character/80\",\"created\":\"2017-11-30T14:20:35.772Z\"},{\"id\":87,\"name\":\"Cynthia\",\"status\":\"Dead\",\"species\":\"Alien\",\"type\":\"Zigerion\",\"gender\":\"Female\",\"origin\":{\"name\":\"unknown\",\"url\":\"\"},\"location\":{\"name\":\"Zigerion's Base\",\"url\":\"https://rickandmortyapi.com/api/location/46\"},\"image\":\"https://rickandmortyapi.com/api/character/avatar/87.jpeg\",\"episode\":[\"https://rickandmortyapi.com/api/episode/4\"],\"url\":\"https://rickandmortyapi.com/api/character/87\",\"created\":\"2017-11-30T21:08:32.534Z\"},{\"id\":88,\"name\":\"Cynthia\",\"status\":\"Alive\",\"species\":\"Human\",\"type\":\"\",\"gender\":\"Female\",\"origin\":{\"name\":\"Earth (Replacement Dimension)\",\"url\":\"https://rickandmortyapi.com/api/location/20\"},\"location\":{\"name\":\"Earth (Replacement Dimension)\",\"url\":\"https://rickandmortyapi.com/api/location/20\"},\"image\":\"https://rickandmortyapi.com/api/character/avatar/88.jpeg\",\"episode\":[\"https://rickandmortyapi.com/api/episode/8\",\"https://rickandmortyapi.com/api/episode/9\",\"https://rickandmortyapi.com/api/episode/11\"],\"url\":\"https://rickandmortyapi.com/api/character/88\",\"created\":\"2017-11-30T21:16:35.633Z\"},{\"id\":94,\"name\":\"Diane Sanchez\",\"status\":\"unknown\",\"species\":\"Human\",\"type\":\"\",\"gender\":\"Female\",\"origin\":{\"name\":\"Earth (Unknown dimension)\",\"url\":\"https://rickandmortyapi.com/api/location/30\"},\"location\":{\"name\":\"Earth (Unknown dimension)\",\"url\":\"https://rickandmortyapi.com/api/location/30\"},\"image\":\"https://rickandmortyapi.com/api/character/avatar/94.jpeg\",\"episode\":[\"https://rickandmortyapi.com/api/episode/22\"],\"url\":\"https://rickandmortyapi.com/api/character/94\",\"created\":\"2017-12-01T11:49:43.929Z\"},{\"id\":102,\"name\":\"Donna Gueterman\",\"status\":\"Dead\",\"species\":\"Robot\",\"type\":\"\",\"gender\":\"Female\",\"origin\":{\"name\":\"unknown\",\"url\":\"\"},\"location\":{\"name\":\"Planet Squanch\",\"url\":\"https://rickandmortyapi.com/api/location/35\"},\"image\":\"https://rickandmortyapi.com/api/character/avatar/102.jpeg\",\"episode\":[\"https://rickandmortyapi.com/api/episode/21\"],\"url\":\"https://rickandmortyapi.com/api/character/102\",\"created\":\"2017-12-01T12:21:21.357Z\"},{\"id\":107,\"name\":\"Dr. Wong\",\"status\":\"Alive\",\"species\":\"Human\",\"type\":\"\",\"gender\":\"Female\",\"origin\":{\"name\":\"Earth (Replacement Dimension)\",\"url\":\"https://rickandmortyapi.com/api/location/20\"},\"location\":{\"name\":\"Earth (Replacement Dimension)\",\"url\":\"https://rickandmortyapi.com/api/location/20\"},\"image\":\"https://rickandmortyapi.com/api/character/avatar/107.jpeg\",\"episode\":[\"https://rickandmortyapi.com/api/episode/24\"],\"url\":\"https://rickandmortyapi.com/api/character/107\",\"created\":\"2017-12-26T12:55:58.449Z\"},{\"id\":111,\"name\":\"Eli's Girlfriend\",\"status\":\"Alive\",\"species\":\"Human\",\"type\":\"\",\"gender\":\"Female\",\"origin\":{\"name\":\"Post-Apocalyptic Earth\",\"url\":\"https://rickandmortyapi.com/api/location/8\"},\"location\":{\"name\":\"Post-Apocalyptic Earth\",\"url\":\"https://rickandmortyapi.com/api/location/8\"},\"image\":\"https://rickandmortyapi.com/api/character/avatar/111.jpeg\",\"episode\":[\"https://rickandmortyapi.com/api/episode/23\"],\"url\":\"https://rickandmortyapi.com/api/character/111\",\"created\":\"2017-12-26T13:38:47.115Z\"},{\"id\":116,\"name\":\"Evil Beth Clone\",\"status\":\"Dead\",\"species\":\"Human\",\"type\":\"Clone\",\"gender\":\"Female\",\"origin\":{\"name\":\"unknown\",\"url\":\"\"},\"location\":{\"name\":\"Earth (C-137)\",\"url\":\"https://rickandmortyapi.com/api/location/1\"},\"image\":\"https://rickandmortyapi.com/api/character/avatar/116.jpeg\",\"episode\":[\"https://rickandmortyapi.com/api/episode/5\"],\"url\":\"https://rickandmortyapi.com/api/character/116\",\"created\":\"2017-12-26T16:10:47.781Z\"}]}",
      "headers": {
        "Server": "nginx/1.10.3 (Ubuntu)",
        "Date": "Sun, 25 Mar 2018 22:33:34 GMT",
        "Content-Type": "application/json; charset=utf-8",
        "Content-Length": "12114",
        "Connection": "keep-alive",
        "X-Powered-By": "Express",
        "ETag": "W/\"2f52-naVAhXaYkCg6DgocvyySFUE1Nds\"",
        "Access-Control-Allow-Origin": "*",
        "Expires": "Sun, 25 Mar 2018 22:38:34 GMT",
        "Cache-Control": "max-age=300"
      },
      "status_code": 200,
      "type": "ok"
    }
  }
]